\relax 
\@writefile{toc}{\contentsline {title}{Supplementary Material for: Multi-Task Convolutional Neural Network for Face Recognition in Constrained Environment}{1}}
\@writefile{toc}{\authcount {1}}
\@writefile{toc}{\contentsline {author}{Anonymous ECCV submission}{1}}
\@writefile{toc}{\contentsline {section}{\numberline {1}Convergence Rates for Different Methods}{1}}
\newlabel{eqn:obj_3}{{1}{1}}
\@writefile{lof}{\contentsline {figure}{\numberline {1}{\ignorespaces Comparison of $l_d$ on three different methods.}}{2}}
\newlabel{fig:maintask}{{1}{2}}
\@writefile{lof}{\contentsline {figure}{\numberline {2}{\ignorespaces Comparison of $l_p$, $l_e$, and $l_m$ for MT-CNN and pose-directed MT-CNN.}}{2}}
\newlabel{fig:sidetasks}{{2}{2}}
\@writefile{toc}{\contentsline {section}{\numberline {2}Weights Visualization}{3}}
\@writefile{toc}{\contentsline {section}{\numberline {3}Face Identification Examples}{3}}
\@writefile{lof}{\contentsline {figure}{\numberline {3}{\ignorespaces Weights visualization. Horizontally from left to right, the four regions correspond to the tasks of identity, pose, expression, and illumination classification, respectively. Yellow rows (i.e., elements of the fc$2$ layer) have higher contributions/weights to the main task or one of the three side tasks.}}{4}}
\newlabel{fig:weights}{{3}{4}}
\@writefile{lof}{\contentsline {figure}{\numberline {4}{\ignorespaces Examples of several test images with the top five identified face images from the gallery set. The correct identity is shown in the green box.}}{4}}
\newlabel{fig:examples}{{4}{4}}
